<svg width="110" height="83" viewBox="0 0 110 83" fill="none" xmlns="http://www.w3.org/2000/svg">
<path d="M94.7906 69.4801C84.8476 86.6132 70.3634 84.6202 53.2303 74.6772C36.0972 64.7342 8.58651 44.9202 13.8775 24.2944C20.8168 -2.75692 84.2159 -3.92759 101.349 6.0154C118.482 15.9584 104.734 52.347 94.7906 69.4801Z" fill="#4874F1"/>
<path d="M63.77 45.6775L63.96 43.0175L66.2775 41.695C68.5027 40.4055 70.5471 38.8267 72.3575 37C78.9575 30.3975 80.9725 22.635 78.545 20.205C76.115 17.78 68.3525 19.79 61.75 26.3925C59.85 28.2925 58.2575 30.3675 57.055 32.4725L55.73 34.79L53.0725 34.98C50.8917 35.133 48.8222 36.0012 47.185 37.45C50.3099 38.8251 53.151 40.7708 55.5625 43.1875C58.0125 45.6375 59.9425 48.48 61.3 51.565C62.7488 49.9278 63.6171 47.8583 63.77 45.6775ZM56.3375 52.75C55.8347 53.4336 55.2806 54.078 54.68 54.6775C51.75 57.6075 47.33 58.49 41.42 57.3275C40.26 51.42 41.145 47 44.07 44.07C44.69 43.455 45.335 42.9 46 42.4125C43.9505 41.4113 41.7603 40.7284 39.505 40.3875C40.2311 38.1083 41.494 36.0369 43.1875 34.3475C45.7335 31.7952 49.1164 30.2493 52.7125 29.995C54.222 27.383 56.0715 24.9828 58.2125 22.8575C66.5125 14.5575 77.1975 11.79 82.08 16.67C86.96 21.5525 84.19 32.2375 75.8925 40.535C73.7672 42.6761 71.367 44.5255 68.755 46.035C68.5007 49.6311 66.9549 53.014 64.4025 55.56C62.7146 57.2559 60.6427 58.5199 58.3625 59.245C58.0216 56.9897 57.3387 54.7995 56.3375 52.75ZM52.025 46.725C51.6224 46.3215 51.1686 45.9726 50.675 45.6875C49.595 46.0625 48.325 46.8875 47.1625 48.0475C46.615 48.5975 45.945 50.445 45.9375 52.81C48.3025 52.8025 50.1575 52.125 50.7 51.585C51.8625 50.42 52.6875 49.1525 53.06 48.0725C52.7756 47.5791 52.4277 47.1252 52.025 46.7225V46.725ZM71.47 27.275C71.2258 27.0457 71.0302 26.7696 70.8948 26.4632C70.7594 26.1568 70.6869 25.8264 70.6817 25.4914C70.6765 25.1565 70.7386 24.8239 70.8645 24.5134C70.9903 24.203 71.1773 23.921 71.4142 23.6842C71.6512 23.4474 71.9333 23.2607 72.2439 23.135C72.5544 23.0094 72.887 22.9475 73.222 22.9529C73.5569 22.9584 73.8874 23.0311 74.1937 23.1667C74.5 23.3023 74.7759 23.4981 75.005 23.7425C75.4361 24.2179 75.6678 24.8409 75.6523 25.4824C75.6367 26.124 75.375 26.735 74.9214 27.1889C74.4678 27.6429 73.8569 27.905 73.2154 27.921C72.5739 27.937 71.9507 27.7057 71.475 27.275H71.47Z" fill="white"/>
<g opacity="0.3">
<circle cx="1.09722" cy="8.77776" r="1.09722" fill="#4874F1"/>
<circle cx="31.8195" cy="8.77776" r="1.09722" fill="#4874F1"/>
<circle cx="8.77776" cy="8.77776" r="1.09722" fill="#4874F1"/>
<circle cx="16.4584" cy="8.77776" r="1.09722" fill="#4874F1"/>
<circle cx="24.1389" cy="8.77776" r="1.09722" fill="#4874F1"/>
<circle cx="1.09722" cy="24.1388" r="1.09722" fill="#4874F1"/>
<circle cx="31.8195" cy="24.1388" r="1.09722" fill="#4874F1"/>
<circle cx="8.77776" cy="24.1388" r="1.09722" fill="#4874F1"/>
<circle cx="16.4584" cy="24.1388" r="1.09722" fill="#4874F1"/>
<circle cx="24.1389" cy="24.1388" r="1.09722" fill="#4874F1"/>
<circle cx="1.09722" cy="1.09722" r="1.09722" fill="#4874F1"/>
<circle cx="31.8195" cy="1.09722" r="1.09722" fill="#4874F1"/>
<circle cx="8.77776" cy="1.09722" r="1.09722" fill="#4874F1"/>
<circle cx="16.4584" cy="1.09722" r="1.09722" fill="#4874F1"/>
<circle cx="24.1389" cy="1.09722" r="1.09722" fill="#4874F1"/>
<circle cx="1.09722" cy="16.4584" r="1.09722" fill="#4874F1"/>
<circle cx="31.8195" cy="16.4583" r="1.09722" fill="#4874F1"/>
<circle cx="8.77776" cy="16.4583" r="1.09722" fill="#4874F1"/>
<circle cx="16.4584" cy="16.4583" r="1.09722" fill="#4874F1"/>
<circle cx="24.1389" cy="16.4583" r="1.09722" fill="#4874F1"/>
<circle cx="1.09722" cy="31.8195" r="1.09722" fill="#4874F1"/>
<circle cx="31.8195" cy="31.8195" r="1.09722" fill="#4874F1"/>
<circle cx="8.77776" cy="31.8195" r="1.09722" fill="#4874F1"/>
<circle cx="16.4584" cy="31.8195" r="1.09722" fill="#4874F1"/>
<circle cx="24.1389" cy="31.8195" r="1.09722" fill="#4874F1"/>
</g>
</svg>
