<svg width="110" height="83" viewBox="0 0 110 83" fill="none" xmlns="http://www.w3.org/2000/svg">
<path d="M94.7906 69.4801C84.8476 86.6132 70.3634 84.6202 53.2303 74.6772C36.0972 64.7342 8.58651 44.9202 13.8775 24.2944C20.8168 -2.75692 84.2159 -3.92759 101.349 6.0154C118.482 15.9584 104.734 52.347 94.7906 69.4801Z" fill="#4874F1"/>
<path d="M60.5 44.5V39.5C58.5109 39.5 56.6032 38.7098 55.1967 37.3033C53.7902 35.8968 53 33.9891 53 32C53 30.0109 53.7902 28.1032 55.1967 26.6967C56.6032 25.2902 58.5109 24.5 60.5 24.5V22C60.5 21.337 60.7634 20.7011 61.2322 20.2322C61.7011 19.7634 62.337 19.5 63 19.5C63.663 19.5 64.2989 19.7634 64.7678 20.2322C65.2366 20.7011 65.5 21.337 65.5 22V24.5H65.555C67.5295 24.5 69.4232 25.2844 70.8194 26.6806C72.2156 28.0768 73 29.9705 73 31.945C73 32.608 72.7366 33.2439 72.2678 33.7128C71.7989 34.1816 71.163 34.445 70.5 34.445C69.837 34.445 69.2011 34.1816 68.7322 33.7128C68.2634 33.2439 68 32.608 68 31.945C68 31.2965 67.7424 30.6747 67.2839 30.2161C66.8253 29.7576 66.2035 29.5 65.555 29.5H65.5V34.5C67.4891 34.5 69.3968 35.2902 70.8033 36.6967C72.2098 38.1032 73 40.0109 73 42C73 43.9891 72.2098 45.8968 70.8033 47.3033C69.3968 48.7098 67.4891 49.5 65.5 49.5V52C65.5 52.663 65.2366 53.2989 64.7678 53.7678C64.2989 54.2366 63.663 54.5 63 54.5C62.337 54.5 61.7011 54.2366 61.2322 53.7678C60.7634 53.2989 60.5 52.663 60.5 52V49.5H60.3725C58.4172 49.5 56.542 48.7233 55.1594 47.3406C53.7767 45.958 53 44.0828 53 42.1275C53 41.4645 53.2634 40.8286 53.7322 40.3597C54.2011 39.8909 54.837 39.6275 55.5 39.6275C56.163 39.6275 56.7989 39.8909 57.2678 40.3597C57.7366 40.8286 58 41.4645 58 42.1275C58.0007 42.7565 58.2508 43.3596 58.6956 43.8044C59.1404 44.2492 59.7435 44.4993 60.3725 44.5H60.5ZM65.5 44.5C66.163 44.5 66.7989 44.2366 67.2678 43.7678C67.7366 43.2989 68 42.663 68 42C68 41.337 67.7366 40.7011 67.2678 40.2322C66.7989 39.7634 66.163 39.5 65.5 39.5V44.5ZM60.5 29.5C59.837 29.5 59.2011 29.7634 58.7322 30.2322C58.2634 30.7011 58 31.337 58 32C58 32.663 58.2634 33.2989 58.7322 33.7678C59.2011 34.2366 59.837 34.5 60.5 34.5V29.5ZM63 62C49.1925 62 38 50.8075 38 37C38 23.1925 49.1925 12 63 12C76.8075 12 88 23.1925 88 37C88 50.8075 76.8075 62 63 62ZM63 57C68.3043 57 73.3914 54.8929 77.1421 51.1421C80.8929 47.3914 83 42.3043 83 37C83 31.6957 80.8929 26.6086 77.1421 22.8579C73.3914 19.1071 68.3043 17 63 17C57.6957 17 52.6086 19.1071 48.8579 22.8579C45.1071 26.6086 43 31.6957 43 37C43 42.3043 45.1071 47.3914 48.8579 51.1421C52.6086 54.8929 57.6957 57 63 57Z" fill="white"/>
<g opacity="0.3">
<circle cx="1.09722" cy="8.77776" r="1.09722" fill="#4874F1"/>
<circle cx="31.8195" cy="8.77776" r="1.09722" fill="#4874F1"/>
<circle cx="8.77778" cy="8.77776" r="1.09722" fill="#4874F1"/>
<circle cx="16.4583" cy="8.77776" r="1.09722" fill="#4874F1"/>
<circle cx="24.1389" cy="8.77776" r="1.09722" fill="#4874F1"/>
<circle cx="1.09722" cy="24.1388" r="1.09722" fill="#4874F1"/>
<circle cx="31.8195" cy="24.1388" r="1.09722" fill="#4874F1"/>
<circle cx="8.77778" cy="24.1388" r="1.09722" fill="#4874F1"/>
<circle cx="16.4583" cy="24.1388" r="1.09722" fill="#4874F1"/>
<circle cx="24.1389" cy="24.1388" r="1.09722" fill="#4874F1"/>
<circle cx="1.09722" cy="1.09722" r="1.09722" fill="#4874F1"/>
<circle cx="31.8195" cy="1.09722" r="1.09722" fill="#4874F1"/>
<circle cx="8.77778" cy="1.09722" r="1.09722" fill="#4874F1"/>
<circle cx="16.4583" cy="1.09722" r="1.09722" fill="#4874F1"/>
<circle cx="24.1389" cy="1.09722" r="1.09722" fill="#4874F1"/>
<circle cx="1.09722" cy="16.4584" r="1.09722" fill="#4874F1"/>
<circle cx="31.8195" cy="16.4583" r="1.09722" fill="#4874F1"/>
<circle cx="8.77778" cy="16.4583" r="1.09722" fill="#4874F1"/>
<circle cx="16.4583" cy="16.4583" r="1.09722" fill="#4874F1"/>
<circle cx="24.1389" cy="16.4583" r="1.09722" fill="#4874F1"/>
<circle cx="1.09722" cy="31.8195" r="1.09722" fill="#4874F1"/>
<circle cx="31.8195" cy="31.8195" r="1.09722" fill="#4874F1"/>
<circle cx="8.77778" cy="31.8195" r="1.09722" fill="#4874F1"/>
<circle cx="16.4583" cy="31.8195" r="1.09722" fill="#4874F1"/>
<circle cx="24.1389" cy="31.8195" r="1.09722" fill="#4874F1"/>
</g>
</svg>
